{
    "distribution_style": true,
    "identifier": "com.installapplicationsdemo.installapplications",
    "install_location": "/",
    "name": "InstallApplications-${version}.pkg",
    "ownership": "recommended",
    "postinstall_action": "none",
    "suppress_bundle_relocation": true,
    "signing_info": {
      "identity": "Developer ID Installer: BOZEMAN SCHOOL DISTRICT 7 (488D8M8A94)",
      "timestamp": true
    },
    "version": "1.3.1"
}
